Variabler name,Explanation
SubjectID_all,Subject ID
condition,0 is 50% overhead and 1 is 50% overhead which is covered
charityChoice,0 is kids korps and 1 is charity which is water
freqDonation,How often do you donate money to non-profits? 1-low and 6-high
familiar_Water,How familiar are you with charity water? 1-low and 7-high
male,Male dummy
female,Female dummy